Practical assignment
…
## Warning: 136 parsing failures.
## row col expected               actual
##   8  -- a number Prefer not to answer
##  29  -- a number Prefer not to answer
##  32  -- a number Prefer not to answer
##  33  -- a number Prefer not to answer
##  38  -- a number Prefer not to answer
## ... ... ........ ....................
## See problems(...) for more details.

## Warning in Ops.factor(family_income, fct_reorder(family_income,
## parse_number(family_income))): '-' not meaningful for factors

## # A tibble: 1,058 x 66
##        id celebrate main_dish main_dish_other main_prep main_prep_other stuffing
##     <dbl> <chr>     <chr>     <chr>           <chr>     <chr>           <chr>   
##  1 4.34e9 Yes       Turkey    <NA>            Baked     <NA>            Bread-b~
##  2 4.34e9 Yes       Turkey    <NA>            Baked     <NA>            Bread-b~
##  3 4.34e9 Yes       Turkey    <NA>            Roasted   <NA>            Rice-ba~
##  4 4.34e9 Yes       Turkey    <NA>            Baked     <NA>            Bread-b~
##  5 4.34e9 Yes       Tofurkey  <NA>            Baked     <NA>            Bread-b~
##  6 4.34e9 Yes       Turkey    <NA>            Roasted   <NA>            Rice-ba~
##  7 4.34e9 Yes       Turkey    <NA>            Baked     <NA>            Bread-b~
##  8 4.34e9 Yes       Turkey    <NA>            Baked     <NA>            Rice-ba~
##  9 4.34e9 Yes       Turkey    <NA>            Roasted   <NA>            Bread-b~
## 10 4.34e9 Yes       Other (p~ Turkey and Ham  Baked     <NA>            Bread-b~
## # ... with 1,048 more rows, and 59 more variables: stuffing_other <chr>,
## #   cranberry <chr>, cranberry_other <chr>, gravy <chr>, side1 <chr>,
## #   side2 <chr>, side3 <chr>, side4 <chr>, side5 <chr>, side6 <chr>,
## #   side7 <chr>, side8 <chr>, side9 <chr>, side10 <chr>, side11 <chr>,
## #   side12 <chr>, side13 <chr>, side14 <chr>, side15 <chr>, pie1 <chr>,
## #   pie2 <chr>, pie3 <chr>, pie4 <chr>, pie5 <chr>, pie6 <chr>, pie7 <chr>,
## #   pie8 <chr>, pie9 <chr>, pie10 <chr>, pie11 <chr>, pie12 <chr>, ...
…
Meals %>%
  count(celebrate, sort = TRUE) %>%
  filter(celebrate == "Yes")

## # A tibble: 1 x 2
##   celebrate     n
##   <chr>     <int>
## 1 Yes         980

5. What are categories and stats for each main dish served and the method it is prepared?

Meals %>%
  count(main_dish, main_prep)

## # A tibble: 31 x 3
##    main_dish    main_prep                  n
##    <chr>        <chr>                  <int>
##  1 Chicken      Baked                      4
##  2 Chicken      Fried                      2
##  3 Chicken      Other (please specify)     2
##  4 Chicken      Roasted                    4
##  5 Ham/Pork     Baked                     22
##  6 Ham/Pork     I don't know               1
##  7 Ham/Pork     Other (please specify)     1
##  8 Ham/Pork     Roasted                    5
##  9 I don't know Fried                      1
## 10 I don't know I don't know               3
## # ... with 21 more rows
…
